4. Filtering Observations | Data Cleaning and Visualisation using R
…
Count the number of observations. Are there any missing values?

Code

count(ess, eduyrs)

## # A tibble: 45 × 2
##    eduyrs        n
##    <dbl+lbl> <int>
##  1 0            81
##  2 1            45
##  3 2            51
##  4 3           152
##  5 4           347
##  6 5           397
##  7 6           373
##  8 7           490
##  9 8          2479
## 10 9          1689
## # ℹ 35 more rows
…
